1535573596;eth4;639738.00;86013176.00;86652912.00;172026346;1279476;9693.00;59142.50;68835.50;118285;19386;0.00;0.00;0;0
1535573596;total;639738.00;86013176.00;86652912.00;172026346;1279476;9693.00;59142.50;68835.50;118285;19386;0.00;0.00;0;0
1535573598;eth4;637791.00;85896896.00;86534688.00;171793790;1275582;9663.50;59057.50;68721.00;118115;19327;0.00;0.00;0;0
1535573598;total;637791.00;85896896.00;86534688.00;171793790;1275582;9663.50;59057.50;68721.00;118115;19327;0.00;0.00;0;0
1535573600;eth4;633369.00;85465184.00;86098552.00;170930364;1266738;9596.50;58769.00;68365.50;117538;19193;0.00;0.00;0;0
1535573600;total;633369.00;85465184.00;86098552.00;170930364;1266738;9596.50;58769.00;68365.50;117538;19193;0.00;0.00;0;0
1535573602;eth4;629442.00;85134480.00;85763920.00;170268956;1258884;9537.00;58517.00;68054.00;117034;19074;0.00;0.00;0;0
1535573602;total;629442.00;85134480.00;85763920.00;170268956;1258884;9537.00;58517.00;68054.00;117034;19074;0.00;0.00;0;0
1535573604;eth4;632181.00;85170152.00;85802336.00;170340304;1264362;9578.50;58578.00;68156.50;117156;19157;0.00;0.00;0;0
1535573604;total;632181.00;85170152.00;85802336.00;170340304;1264362;9578.50;58578.00;68156.50;117156;19157;0.00;0.00;0;0
1535573606;eth4;634689.00;84841064.00;85475760.00;169682134;1269378;9616.50;58345.50;67962.00;116691;19233;0.00;0.00;0;0
1535573606;total;634689.00;84841064.00;85475760.00;169682134;1269378;9616.50;58345.50;67962.00;116691;19233;0.00;0.00;0;0
1535573608;eth4;633468.00;85071472.00;85704944.00;170142952;1266936;9598.00;58488.00;68086.00;116976;19196;0.00;0.00;0;0
1535573608;total;633468.00;85071472.00;85704944.00;170142952;1266936;9598.00;58488.00;68086.00;116976;19196;0.00;0.00;0;0
1535573610;eth4;633633.00;84990688.00;85624328.00;169981384;1267266;9600.50;58408.00;68008.50;116816;19201;0.00;0.00;0;0
1535573610;total;633633.00;84990688.00;85624328.00;169981384;1267266;9600.50;58408.00;68008.50;116816;19201;0.00;0.00;0;0
1535573612;eth4;631749.00;85072232.00;85703984.00;170144470;1263498;9572.00;58477.00;68049.00;116954;19144;0.00;0.00;0;0
1535573612;total;631749.00;85072232.00;85703984.00;170144470;1263498;9572.00;58477.00;68049.00;116954;19144;0.00;0.00;0;0
1535573614;eth4;634425.00;85093936.00;85728360.00;170187876;1268850;9612.50;58517.00;68129.50;117034;19225;0.00;0.00;0;0
1535573614;total;634425.00;85093936.00;85728360.00;170187876;1268850;9612.50;58517.00;68129.50;117034;19225;0.00;0.00;0;0
1535573616;eth4;634359.00;85017168.00;85651528.00;170034338;1268718;9611.50;58454.50;68066.00;116909;19223;0.00;0.00;0;0
1535573616;total;634359.00;85017168.00;85651528.00;170034338;1268718;9611.50;58454.50;68066.00;116909;19223;0.00;0.00;0;0
1535573618;eth4;633933.50;85162416.00;85796344.00;170324827;1267867;9605.00;58549.00;68154.00;117098;19210;0.00;0.00;0;0
1535573618;total;633933.50;85162416.00;85796344.00;170324827;1267867;9605.00;58549.00;68154.00;117098;19210;0.00;0.00;0;0
1535573620;eth4;631125.00;85213664.00;85844792.00;170427336;1262250;9562.50;58596.00;68158.50;117192;19125;0.00;0.00;0;0
1535573620;total;631125.00;85213664.00;85844792.00;170427336;1262250;9562.50;58596.00;68158.50;117192;19125;0.00;0.00;0;0
1535573622;eth4;631356.00;84926936.00;85558288.00;169853870;1262712;9566.00;58383.50;67949.50;116767;19132;0.00;0.00;0;0
1535573622;total;631356.00;84926936.00;85558288.00;169853870;1262712;9566.00;58383.50;67949.50;116767;19132;0.00;0.00;0;0
1535573624;eth4;631653.00;85175528.00;85807176.00;170351052;1263306;9570.50;58539.00;68109.50;117078;19141;0.00;0.00;0;0
1535573624;total;631653.00;85175528.00;85807176.00;170351052;1263306;9570.50;58539.00;68109.50;117078;19141;0.00;0.00;0;0
1535573626;eth4;628287.00;84915184.00;85543472.00;169830372;1256574;9519.50;58341.00;67860.50;116682;19039;0.00;0.00;0;0
1535573626;total;628287.00;84915184.00;85543472.00;169830372;1256574;9519.50;58341.00;67860.50;116682;19039;0.00;0.00;0;0
1535573628;eth4;630564.00;85186304.00;85816872.00;170372616;1261128;9554.00;58570.00;68124.00;117140;19108;0.00;0.00;0;0
1535573628;total;630564.00;85186304.00;85816872.00;170372616;1261128;9554.00;58570.00;68124.00;117140;19108;0.00;0.00;0;0
1535573630;eth4;633138.00;85094624.00;85727760.00;170189242;1266276;9593.00;58508.50;68101.50;117017;19186;0.00;0.00;0;0
1535573630;total;633138.00;85094624.00;85727760.00;170189242;1266276;9593.00;58508.50;68101.50;117017;19186;0.00;0.00;0;0
1535573632;eth4;632841.00;85140520.00;85773360.00;170281034;1265682;9588.50;58544.50;68133.00;117089;19177;0.00;0.00;0;0
1535573632;total;632841.00;85140520.00;85773360.00;170281034;1265682;9588.50;58544.50;68133.00;117089;19177;0.00;0.00;0;0
1535573634;eth4;634557.00;85158448.00;85793000.00;170316888;1269114;9614.50;58538.00;68152.50;117076;19229;0.00;0.00;0;0
1535573634;total;634557.00;85158448.00;85793000.00;170316888;1269114;9614.50;58538.00;68152.50;117076;19229;0.00;0.00;0;0
