1533891930;eth4;11881452544.00;7905065.50;11889357824.00;15810131;23762905664;7847792.00;119768.00;7967560.00;239536;15695584;0.00;0.00;0;0
1533891930;total;11881452544.00;7905065.50;11889357824.00;15810131;23762905664;7847792.00;119768.00;7967560.00;239536;15695584;0.00;0.00;0;0
1533891932;eth4;11916481536.00;7977423.00;11924458496.00;15954846;23832962788;7870927.00;120856.50;7991783.50;241713;15741854;0.00;0.00;0;0
1533891932;total;11916481536.00;7977423.00;11924458496.00;15954846;23832962788;7870927.00;120856.50;7991783.50;241713;15741854;0.00;0.00;0;0
1533891934;eth4;11868845056.00;8454409.00;11877299200.00;16908818;23737689404;7839471.00;128080.50;7967551.50;256161;15678942;0.00;0.00;0;0
1533891934;total;11868845056.00;8454409.00;11877299200.00;16908818;23737689404;7839471.00;128080.50;7967551.50;256161;15678942;0.00;0.00;0;0
1533891936;eth4;11876405248.00;8369503.00;11884775424.00;16739006;23752810838;7844455.50;126794.50;7971250.00;253589;15688911;0.00;0.00;0;0
1533891936;total;11876405248.00;8369503.00;11884775424.00;16739006;23752810838;7844455.50;126794.50;7971250.00;253589;15688911;0.00;0.00;0;0
1533891938;eth4;11887203328.00;8005924.00;11895209984.00;16011848;23774407150;7851573.50;121296.00;7972869.50;242592;15703147;0.00;0.00;0;0
1533891938;total;11887203328.00;8005924.00;11895209984.00;16011848;23774407150;7851573.50;121296.00;7972869.50;242592;15703147;0.00;0.00;0;0
1533891940;eth4;11919106048.00;7975655.00;11927080960.00;15951310;23838211230;7872699.50;120837.50;7993537.00;241675;15745399;0.00;0.00;0;0
1533891940;total;11919106048.00;7975655.00;11927080960.00;15951310;23838211230;7872699.50;120837.50;7993537.00;241675;15745399;0.00;0.00;0;0
1533891942;eth4;11884033024.00;8002008.00;11892035584.00;16004016;23768066509;7849515.50;121227.00;7970742.50;242454;15699031;0.00;0.00;0;0
1533891942;total;11884033024.00;8002008.00;11892035584.00;16004016;23768066509;7849515.50;121227.00;7970742.50;242454;15699031;0.00;0.00;0;0
1533891944;eth4;11895890944.00;7875513.00;11903766528.00;15751026;23791781790;7857325.50;119325.50;7976651.00;238651;15714651;0.00;0.00;0;0
1533891944;total;11895890944.00;7875513.00;11903766528.00;15751026;23791781790;7857325.50;119325.50;7976651.00;238651;15714651;0.00;0.00;0;0
1533891946;eth4;11909102592.00;8055046.00;11917157376.00;16110092;23818204572;7866033.00;122027.00;7988060.00;244054;15732066;0.00;0.00;0;0
1533891946;total;11909102592.00;8055046.00;11917157376.00;16110092;23818204572;7866033.00;122027.00;7988060.00;244054;15732066;0.00;0.00;0;0
1533891948;eth4;11907980288.00;7991207.00;11915971584.00;15982414;23815960886;7865321.50;121067.50;7986389.00;242135;15730643;0.00;0.00;0;0
1533891948;total;11907980288.00;7991207.00;11915971584.00;15982414;23815960886;7865321.50;121067.50;7986389.00;242135;15730643;0.00;0.00;0;0
1533891950;eth4;11890685952.00;8097603.00;11898783744.00;16195206;23781372442;7853872.50;122686.50;7976559.00;245373;15707745;0.00;0.00;0;0
1533891950;total;11890685952.00;8097603.00;11898783744.00;16195206;23781372442;7853872.50;122686.50;7976559.00;245373;15707745;0.00;0.00;0;0
1533891952;eth4;11909405696.00;8198114.00;11917603840.00;16396228;23818811954;7866246.50;124189.00;7990435.50;248378;15732493;0.00;0.00;0;0
1533891952;total;11909405696.00;8198114.00;11917603840.00;16396228;23818811954;7866246.50;124189.00;7990435.50;248378;15732493;0.00;0.00;0;0
1533891954;eth4;11960910848.00;8087254.00;11968997376.00;16174508;23921820740;7900273.00;122528.00;8022801.00;245056;15800546;0.00;0.00;0;0
1533891954;total;11960910848.00;8087254.00;11968997376.00;16174508;23921820740;7900273.00;122528.00;8022801.00;245056;15800546;0.00;0.00;0;0
1533891956;eth4;11902711808.00;7838811.00;11910550528.00;15677622;23805424292;7861851.00;118757.50;7980608.50;237515;15723702;0.00;0.00;0;0
1533891956;total;11902711808.00;7838811.00;11910550528.00;15677622;23805424292;7861851.00;118757.50;7980608.50;237515;15723702;0.00;0.00;0;0
1533891958;eth4;11931011072.00;8022393.00;11939034112.00;16044786;23862022896;7880516.00;121547.50;8002063.50;243095;15761032;0.00;0.00;0;0
1533891958;total;11931011072.00;8022393.00;11939034112.00;16044786;23862022896;7880516.00;121547.50;8002063.50;243095;15761032;0.00;0.00;0;0
