0.1,  2.0,  0.0 ni, 95.5 id,  0.0 wa,  0.0 hi,  2.4,  0.0 st
0.1,  1.6,  0.0 ni, 96.0 id,  0.0 wa,  0.0 hi,  2.2,  0.0 st
0.1,  1.8,  0.0 ni, 96.0 id,  0.0 wa,  0.0 hi,  2.2,  0.0 st
0.1,  1.8,  0.0 ni, 95.8 id,  0.0 wa,  0.0 hi,  2.3,  0.0 st
0.1,  1.8,  0.0 ni, 95.9 id,  0.0 wa,  0.0 hi,  2.2,  0.0 st
0.1,  1.7,  0.0 ni, 96.1 id,  0.0 wa,  0.0 hi,  2.1,  0.0 st
1.3,  3.2,  0.0 ni, 95.4 id,  0.0 wa,  0.0 hi,  0.1,  0.0 st
0.1,  1.1,  0.0 ni, 98.7 id,  0.0 wa,  0.0 hi,  0.1,  0.0 st
0.1,  1.0,  0.0 ni, 98.8 id,  0.0 wa,  0.0 hi,  0.1,  0.0 st
0.1,  1.0,  0.0 ni, 98.8 id,  0.0 wa,  0.0 hi,  0.1,  0.0 st
0.1,  1.1,  0.0 ni, 98.6 id,  0.0 wa,  0.0 hi,  0.1,  0.0 st
0.1,  1.2,  0.0 ni, 98.6 id,  0.0 wa,  0.0 hi,  0.1,  0.0 st
