        %sys:  24.00  14.74  11.46   2.04   3.96   1.01   1.01   1.01   0.99   6.06   0.00   0.00   0.00   0.99   0.00   0.00   0.00   0.00   0.00   0.00   0.00   0.00   0.00   0.00   0.00   0.00   0.00   0.00   0.00   9.18   0.00   0.00   0.00   0.00   0.99   0.00   0.00   0.99   0.00   0.00 
        %sys:  17.71  13.54   9.28   3.06   7.00   7.07   1.00   1.00   2.00   6.19   1.00   0.00   0.00   0.00   0.00   0.00   0.00   0.00   0.00   0.00   0.00   0.00   0.00   0.00   0.00   0.00   0.00   0.00   0.00   7.22   0.00   0.00   0.00   0.00   0.00   0.00   0.00   0.00   0.00   0.00 
        %sys:  19.79  15.15   9.18   3.06   5.00   6.06   3.00   1.01   0.00   6.12   0.00   0.00   0.00   0.00   0.00   0.00   0.00   0.00   0.00   0.00   0.00   0.00   0.00   0.00   0.00   0.00   0.00   0.00   0.00   9.28   0.00   0.00   0.00   0.00   0.00   0.00   0.00   0.00   0.00   0.00 
        %sys:  14.43  11.58  11.34   4.17   1.01   1.00   3.03  11.00   3.03   5.49   0.00   0.00   0.00   0.00   0.00   0.00   0.00   0.00   0.00   0.00   0.00   0.00   0.00   0.00   0.00   0.00   0.00   0.00   0.00   6.12   0.00   0.00   0.00   0.00   0.00   0.00   0.00   0.00   0.00   0.00 
        %sys:  19.59  16.49  15.00   1.02   3.00   2.02   0.00   3.96   0.00   4.12   0.00   0.00   0.00   0.00   0.00   0.00   0.00   0.00   0.00   0.00   0.00   0.00   0.00   0.00   0.00   0.00   0.00   0.00   0.00  10.31   0.00   0.00   0.00   0.00   0.00   0.00   0.00   0.00   0.00   0.00 
        %sys:  19.19  14.43  15.31   5.05   2.02   7.00   0.00   1.00   1.98   5.15   0.99   0.00   0.00   0.00   0.00   0.00   0.00   0.00   0.00   0.00   0.00   0.00   0.00   0.00   0.00   0.00   0.00   0.00   0.00   8.00   0.00   0.00   0.00   0.00   0.00   0.00   0.00   0.00   0.00   0.00 
        %sys:  18.75  15.46  15.62   9.47   0.00   0.00   0.00   0.00   0.00   2.06   0.00   1.00   0.00   0.00   0.00   0.00   0.00   0.00   0.00   0.00   0.00   0.00   0.00   0.00   0.00   0.00   0.00   0.00   0.00   9.18   0.00   0.00   0.00   0.00   0.00   0.00   0.00   0.00   0.00   0.00 
        %sys:  15.79  16.33  11.34   3.03   3.03   1.00   1.00   5.05   1.00   5.15   0.00   0.00   0.00   0.00   0.00   0.00   0.00   0.00   0.00   0.00   0.00   0.00   0.00   0.00   0.00   0.00   0.00   0.00   0.00   9.38   0.00   0.00   0.00   0.00   0.00   0.00   0.00   0.00   0.00   0.00 
