1533819977;eth4;2694972928.00;2462373.00;2697435392.00;4924746;5389945980;1780035.00;37266.50;1817301.50;74533;3560070;0.00;0.00;0;0
1533819977;total;2694972928.00;2462373.00;2697435392.00;4924746;5389945980;1780035.00;37266.50;1817301.50;74533;3560070;0.00;0.00;0;0
1533819979;eth4;2592634112.00;2351941.00;2594985984.00;4703882;5185268320;1712440.00;35596.50;1748036.50;71193;3424880;0.00;0.00;0;0
1533819979;total;2592634112.00;2351941.00;2594985984.00;4703882;5185268320;1712440.00;35596.50;1748036.50;71193;3424880;0.00;0.00;0;0
1533819981;eth4;2526217984.00;2246197.00;2528464128.00;4492394;5052436016;1668572.00;33995.50;1702567.50;67991;3337144;0.00;0.00;0;0
1533819981;total;2526217984.00;2246197.00;2528464128.00;4492394;5052436016;1668572.00;33995.50;1702567.50;67991;3337144;0.00;0.00;0;0
1533819983;eth4;2620964096.00;2376907.00;2623341056.00;4753814;5241928256;1731152.00;35972.50;1767124.50;71945;3462304;0.00;0.00;0;0
1533819983;total;2620964096.00;2376907.00;2623341056.00;4753814;5241928256;1731152.00;35972.50;1767124.50;71945;3462304;0.00;0.00;0;0
1533819985;eth4;2595499520.00;2349793.00;2597849088.00;4699586;5190998810;1714332.50;35561.50;1749894.00;71123;3428665;0.00;0.00;0;0
1533819985;total;2595499520.00;2349793.00;2597849088.00;4699586;5190998810;1714332.50;35561.50;1749894.00;71123;3428665;0.00;0.00;0;0
1533819987;eth4;2618244352.00;2354729.00;2620599040.00;4709458;5236488454;1729355.50;35637.50;1764993.00;71275;3458711;0.00;0.00;0;0
1533819987;total;2618244352.00;2354729.00;2620599040.00;4709458;5236488454;1729355.50;35637.50;1764993.00;71275;3458711;0.00;0.00;0;0
1533819989;eth4;2588074752.00;2331985.00;2590406656.00;4663970;5176149498;1709428.50;35294.50;1744723.00;70589;3418857;0.00;0.00;0;0
1533819989;total;2588074752.00;2331985.00;2590406656.00;4663970;5176149498;1709428.50;35294.50;1744723.00;70589;3418857;0.00;0.00;0;0
1533819991;eth4;2536654080.00;2276059.50;2538930176.00;4552119;5073308020;1675465.00;34450.00;1709915.00;68900;3350930;0.00;0.00;0;0
1533819991;total;2536654080.00;2276059.50;2538930176.00;4552119;5073308020;1675465.00;34450.00;1709915.00;68900;3350930;0.00;0.00;0;0
1533819993;eth4;2676941312.00;2475471.00;2679416832.00;4950942;5353882500;1768125.00;37466.50;1805591.50;74933;3536250;0.00;0.00;0;0
1533819993;total;2676941312.00;2475471.00;2679416832.00;4950942;5353882500;1768125.00;37466.50;1805591.50;74933;3536250;0.00;0.00;0;0
1533819995;eth4;2648009472.00;2408809.00;2650418176.00;4817618;5296018934;1749015.50;36456.50;1785472.00;72913;3498031;0.00;0.00;0;0
1533819995;total;2648009472.00;2408809.00;2650418176.00;4817618;5296018934;1749015.50;36456.50;1785472.00;72913;3498031;0.00;0.00;0;0
1533819997;eth4;2613541632.00;2342675.00;2615884544.00;4685350;5227083486;1726249.50;35457.50;1761707.00;70915;3452499;0.00;0.00;0;0
1533819997;total;2613541632.00;2342675.00;2615884544.00;4685350;5227083486;1726249.50;35457.50;1761707.00;70915;3452499;0.00;0.00;0;0
1533819999;eth4;2607416832.00;2349550.00;2609766400.00;4699100;5214833712;1722204.00;35562.00;1757766.00;71124;3444408;0.00;0.00;0;0
1533819999;total;2607416832.00;2349550.00;2609766400.00;4699100;5214833712;1722204.00;35562.00;1757766.00;71124;3444408;0.00;0.00;0;0
1533820001;eth4;2563932416.00;2325433.00;2566257920.00;4650866;5127865010;1693482.50;35194.50;1728677.00;70389;3386965;0.00;0.00;0;0
1533820001;total;2563932416.00;2325433.00;2566257920.00;4650866;5127865010;1693482.50;35194.50;1728677.00;70389;3386965;0.00;0.00;0;0
1533820003;eth4;2626861312.00;2366819.00;2629228032.00;4733638;5253722389;1735047.50;35822.50;1770870.00;71645;3470095;0.00;0.00;0;0
1533820003;total;2626861312.00;2366819.00;2629228032.00;4733638;5253722389;1735047.50;35822.50;1770870.00;71645;3470095;0.00;0.00;0;0
1533820005;eth4;2580645632.00;2314228.00;2582959872.00;4628456;5161291102;1704521.50;35026.00;1739547.50;70052;3409043;0.00;0.00;0;0
1533820005;total;2580645632.00;2314228.00;2582959872.00;4628456;5161291102;1704521.50;35026.00;1739547.50;70052;3409043;0.00;0.00;0;0
