1535012744;eth4;11427678208.00;17379010.00;11445056512.00;34758021;22855355648;213026.00;263310.50;476336.50;526621;426052;0.00;0.00;0;0
1535012744;total;11427678208.00;17379010.00;11445056512.00;34758021;22855355648;213026.00;263310.50;476336.50;526621;426052;0.00;0.00;0;0
1535012746;eth4;10307595264.00;13964940.00;10321559552.00;27929880;20615190188;179607.50;211510.00;391117.50;423020;359215;0.00;0.00;0;0
1535012746;total;10307595264.00;13964940.00;10321559552.00;27929880;20615190188;179607.50;211510.00;391117.50;423020;359215;0.00;0.00;0;0
1535012748;eth4;11606619136.00;13560249.00;11620179968.00;27120498;23213238782;200548.50;205340.50;405889.00;410681;401097;0.00;0.00;0;0
1535012748;total;11606619136.00;13560249.00;11620179968.00;27120498;23213238782;200548.50;205340.50;405889.00;410681;401097;0.00;0.00;0;0
1535012750;eth4;11420385280.00;13490955.00;11433876480.00;26981910;22840771394;204062.00;204299.50;408361.50;408599;408124;0.00;0.00;0;0
1535012750;total;11420385280.00;13490955.00;11433876480.00;26981910;22840771394;204062.00;204299.50;408361.50;408599;408124;0.00;0.00;0;0
1535012752;eth4;11122909184.00;12890648.00;11135799296.00;25781296;22245818250;195820.00;195241.00;391061.00;390482;391640;0.00;0.00;0;0
1535012752;total;11122909184.00;12890648.00;11135799296.00;25781296;22245818250;195820.00;195241.00;391061.00;390482;391640;0.00;0.00;0;0
1535012754;eth4;11323779072.00;13289303.00;11337068544.00;26578606;22647558642;201256.50;201248.50;402505.00;402497;402513;0.00;0.00;0;0
1535012754;total;11323779072.00;13289303.00;11337068544.00;26578606;22647558642;201256.50;201248.50;402505.00;402497;402513;0.00;0.00;0;0
1535012756;eth4;11377264640.00;15401310.00;11392665600.00;30802620;22754528674;205990.00;233326.00;439316.00;466652;411980;0.00;0.00;0;0
1535012756;total;11377264640.00;15401310.00;11392665600.00;30802620;22754528674;205990.00;233326.00;439316.00;466652;411980;0.00;0.00;0;0
1535012758;eth4;11495717888.00;17091130.00;11512809472.00;34199352;23002930412;213529.74;258956.53;472486.27;518172;427273;0.00;0.00;0;0
1535012758;total;11495717888.00;17091130.00;11512809472.00;34199352;23002930412;213529.74;258956.53;472486.27;518172;427273;0.00;0.00;0;0
1535012760;eth4;10811432960.00;17288704.00;10828721152.00;34577406;21622865318;204894.00;261947.50;466841.50;523895;409788;0.00;0.00;0;0
1535012760;total;10811432960.00;17288704.00;10828721152.00;34577406;21622865318;204894.00;261947.50;466841.50;523895;409788;0.00;0.00;0;0
1535012762;eth4;11675186176.00;16082941.00;11691269120.00;32165882;23350372784;218140.50;243667.50;461808.00;487335;436281;0.00;0.00;0;0
1535012762;total;11675186176.00;16082941.00;11691269120.00;32165882;23350372784;218140.50;243667.50;461808.00;487335;436281;0.00;0.00;0;0
1535012764;eth4;11718221824.00;17325104.00;11735546880.00;34650206;23436444533;223103.50;262491.50;485595.00;524983;446207;0.00;0.00;0;0
1535012764;total;11718221824.00;17325104.00;11735546880.00;34650206;23436444533;223103.50;262491.50;485595.00;524983;446207;0.00;0.00;0;0
1535012766;eth4;11394339840.00;16561479.00;11410902016.00;33122958;22788680698;213361.50;250931.50;464293.00;501863;426723;0.00;0.00;0;0
1535012766;total;11394339840.00;16561479.00;11410902016.00;33122958;22788680698;213361.50;250931.50;464293.00;501863;426723;0.00;0.00;0;0
1535012768;eth4;10365958144.00;14642232.00;10380600320.00;29284464;20731915478;185045.00;221819.00;406864.00;443638;370090;0.00;0.00;0;0
1535012768;total;10365958144.00;14642232.00;10380600320.00;29284464;20731915478;185045.00;221819.00;406864.00;443638;370090;0.00;0.00;0;0
1535012770;eth4;11426989056.00;18061528.00;11445050368.00;36123054;22853977310;211990.00;273659.50;485649.50;547319;423980;0.00;0.00;0;0
1535012770;total;11426989056.00;18061528.00;11445050368.00;36123054;22853977310;211990.00;273659.50;485649.50;547319;423980;0.00;0.00;0;0
1535012772;eth4;11557796864.00;18947072.00;11576743936.00;37894144;23115594634;213627.50;287056.00;500683.50;574112;427255;0.00;0.00;0;0
1535012772;total;11557796864.00;18947072.00;11576743936.00;37894144;23115594634;213627.50;287056.00;500683.50;574112;427255;0.00;0.00;0;0
1535012774;eth4;11538875392.00;16790482.00;11555665920.00;33580965;23077751092;208372.50;254396.50;462769.00;508793;416745;0.00;0.00;0;0
1535012774;total;11538875392.00;16790482.00;11555665920.00;33580965;23077751092;208372.50;254396.50;462769.00;508793;416745;0.00;0.00;0;0
1535012776;eth4;10582858752.00;16631011.00;10599489536.00;33278652;21176298870;196502.25;251985.01;448487.27;504222;393201;0.00;0.00;0;0
1535012776;total;10582858752.00;16631011.00;10599489536.00;33278652;21176298870;196502.25;251985.01;448487.27;504222;393201;0.00;0.00;0;0
1535012778;eth4;10754562048.00;16974308.00;10771535872.00;33948618;21509123216;195560.00;257186.50;452746.50;514373;391120;0.00;0.00;0;0
1535012778;total;10754562048.00;16974308.00;10771535872.00;33948618;21509123216;195560.00;257186.50;452746.50;514373;391120;0.00;0.00;0;0
1535012780;eth4;11541635072.00;17267416.00;11558902784.00;34534834;23083270158;212676.50;261620.50;474297.00;523241;425353;0.00;0.00;0;0
1535012780;total;11541635072.00;17267416.00;11558902784.00;34534834;23083270158;212676.50;261620.50;474297.00;523241;425353;0.00;0.00;0;0
1535012782;eth4;11593232384.00;18125068.00;11611357184.00;36250138;23186463818;215994.50;274585.50;490580.00;549171;431989;0.00;0.00;0;0
1535012782;total;11593232384.00;18125068.00;11611357184.00;36250138;23186463818;215994.50;274585.50;490580.00;549171;431989;0.00;0.00;0;0
