1535013699;eth4;11277899776.00;18634576.00;11296534528.00;37269150;22555799916;205659.50;282321.50;487981.00;564643;411319;0.00;0.00;0;0
1535013699;total;11277899776.00;18634576.00;11296534528.00;37269150;22555799916;205659.50;282321.50;487981.00;564643;411319;0.00;0.00;0;0
1535013701;eth4;10670287872.00;16761241.00;10687048704.00;34913666;22226209210;194907.35;253946.72;448854.06;528971;405992;0.00;0.00;0;0
1535013701;total;10670287872.00;16761241.00;10687048704.00;34913666;22226209210;194907.35;253946.72;448854.06;528971;405992;0.00;0.00;0;0
1535013703;eth4;11510468608.00;16894848.00;11527363584.00;33789696;23020936556;210010.50;255979.00;465989.50;511958;420021;0.00;0.00;0;0
1535013703;total;11510468608.00;16894848.00;11527363584.00;33789696;23020936556;210010.50;255979.00;465989.50;511958;420021;0.00;0.00;0;0
1535013705;eth4;11187474432.00;17110980.00;11204585472.00;34221961;22374949498;203497.00;259244.50;462741.50;518489;406994;0.00;0.00;0;0
1535013705;total;11187474432.00;17110980.00;11204585472.00;34221961;22374949498;203497.00;259244.50;462741.50;518489;406994;0.00;0.00;0;0
1535013707;eth4;11842866176.00;16122175.00;11858989056.00;32244350;23685733326;220356.50;244222.50;464579.00;488445;440713;0.00;0.00;0;0
1535013707;total;11842866176.00;16122175.00;11858989056.00;32244350;23685733326;220356.50;244222.50;464579.00;488445;440713;0.00;0.00;0;0
1535013709;eth4;11728006144.00;16356959.00;11744362496.00;32713918;23456011428;222586.50;247825.50;470412.00;495651;445173;0.00;0.00;0;0
1535013709;total;11728006144.00;16356959.00;11744362496.00;32713918;23456011428;222586.50;247825.50;470412.00;495651;445173;0.00;0.00;0;0
1535013711;eth4;10792708096.00;15548825.00;10808256512.00;31097650;21585416068;205732.00;235572.50;441304.50;471145;411464;0.00;0.00;0;0
1535013711;total;10792708096.00;15548825.00;10808256512.00;31097650;21585416068;205732.00;235572.50;441304.50;471145;411464;0.00;0.00;0;0
1535013713;eth4;11619039232.00;18720292.00;11637760000.00;37440584;23238079290;214511.00;283630.00;498141.00;567260;429022;0.00;0.00;0;0
1535013713;total;11619039232.00;18720292.00;11637760000.00;37440584;23238079290;214511.00;283630.00;498141.00;567260;429022;0.00;0.00;0;0
1535013715;eth4;11770047488.00;16310182.00;11786357760.00;32620364;23540095504;222337.00;247111.00;469448.00;494222;444674;0.00;0.00;0;0
1535013715;total;11770047488.00;16310182.00;11786357760.00;32620364;23540095504;222337.00;247111.00;469448.00;494222;444674;0.00;0.00;0;0
1535013717;eth4;11807995904.00;16769446.00;11824764928.00;33538892;23615991234;226382.50;254074.00;480456.50;508148;452765;0.00;0.00;0;0
1535013717;total;11807995904.00;16769446.00;11824764928.00;33538892;23615991234;226382.50;254074.00;480456.50;508148;452765;0.00;0.00;0;0
1535013719;eth4;11788830720.00;17162568.00;11805992960.00;34325134;23577660632;222033.50;260032.50;482066.00;520065;444067;0.00;0.00;0;0
1535013719;total;11788830720.00;17162568.00;11805992960.00;34325134;23577660632;222033.50;260032.50;482066.00;520065;444067;0.00;0.00;0;0
1535013721;eth4;10204453888.00;15447801.00;10219900928.00;30895602;20408906998;185303.50;234054.50;419358.00;468109;370607;0.00;0.00;0;0
1535013721;total;10204453888.00;15447801.00;10219900928.00;30895602;20408906998;185303.50;234054.50;419358.00;468109;370607;0.00;0.00;0;0
1535013723;eth4;11633186816.00;16354253.00;11649541120.00;32708506;23266374652;208937.00;247780.50;456717.50;495561;417874;0.00;0.00;0;0
1535013723;total;11633186816.00;16354253.00;11649541120.00;32708506;23266374652;208937.00;247780.50;456717.50;495561;417874;0.00;0.00;0;0
1535013725;eth4;11856492544.00;16503830.00;11872996352.00;33007660;23712985752;208503.50;250045.00;458548.50;500090;417007;0.00;0.00;0;0
1535013725;total;11856492544.00;16503830.00;11872996352.00;33007660;23712985752;208503.50;250045.00;458548.50;500090;417007;0.00;0.00;0;0
1535013727;eth4;10557657088.00;15699941.00;10573357056.00;31399882;21115314719;187779.00;237863.50;425642.50;475727;375558;0.00;0.00;0;0
1535013727;total;10557657088.00;15699941.00;10573357056.00;31399882;21115314719;187779.00;237863.50;425642.50;475727;375558;0.00;0.00;0;0
1535013729;eth4;11576380416.00;16951856.00;11593332736.00;33903712;23152761804;212670.50;256828.50;469499.00;513657;425341;0.00;0.00;0;0
1535013729;total;11576380416.00;16951856.00;11593332736.00;33903712;23152761804;212670.50;256828.50;469499.00;513657;425341;0.00;0.00;0;0
1535013731;eth4;11551266816.00;18266244.00;11569532928.00;36532486;23102533528;210744.00;276729.50;487473.50;553459;421488;0.00;0.00;0;0
1535013731;total;11551266816.00;18266244.00;11569532928.00;36532486;23102533528;210744.00;276729.50;487473.50;553459;421488;0.00;0.00;0;0
1535013733;eth4;10860763136.00;16922668.00;10877686784.00;33845334;21721527264;195980.50;256402.50;452383.00;512805;391961;0.00;0.00;0;0
1535013733;total;10860763136.00;16922668.00;10877686784.00;33845334;21721527264;195980.50;256402.50;452383.00;512805;391961;0.00;0.00;0;0
1535013735;eth4;11303070720.00;18284266.00;11321355264.00;36568531;22606142394;207487.00;277034.00;484521.00;554068;414974;0.00;0.00;0;0
1535013735;total;11303070720.00;18284266.00;11321355264.00;36568531;22606142394;207487.00;277034.00;484521.00;554068;414974;0.00;0.00;0;0
1535013737;eth4;10477021184.00;15763753.00;10492785664.00;31527506;20954042852;189744.50;238819.50;428564.00;477639;379489;0.00;0.00;0;0
1535013737;total;10477021184.00;15763753.00;10492785664.00;31527506;20954042852;189744.50;238819.50;428564.00;477639;379489;0.00;0.00;0;0
