1535011066;eth4;2721005312.00;20053688.00;2741059072.00;40107378;5442010628;1726915.00;303843.50;2030758.50;607687;3453830;0.00;0.00;0;0
1535011066;total;2721005312.00;20053688.00;2741059072.00;40107378;5442010628;1726915.00;303843.50;2030758.50;607687;3453830;0.00;0.00;0;0
1535011068;eth4;2627761152.00;20916784.00;2648678144.00;41833566;5255522476;1730692.50;316920.50;2047613.00;633841;3461385;0.00;0.00;0;0
1535011068;total;2627761152.00;20916784.00;2648678144.00;41833566;5255522476;1730692.50;316920.50;2047613.00;633841;3461385;0.00;0.00;0;0
1535011070;eth4;2470643200.00;18536012.00;2489179136.00;37072026;4941286166;1640726.00;280848.50;1921574.50;561697;3281452;0.00;0.00;0;0
1535011070;total;2470643200.00;18536012.00;2489179136.00;37072026;4941286166;1640726.00;280848.50;1921574.50;561697;3281452;0.00;0.00;0;0
1535011072;eth4;2490920192.00;17971972.00;2508892160.00;35943942;4981840168;1578029.00;272302.50;1850331.50;544605;3156058;0.00;0.00;0;0
1535011072;total;2490920192.00;17971972.00;2508892160.00;35943942;4981840168;1578029.00;272302.50;1850331.50;544605;3156058;0.00;0.00;0;0
1535011074;eth4;2825648896.00;21445924.00;2847094784.00;43041966;5671077438;1808087.24;324938.23;2133025.47;652151;3628831;0.00;0.00;0;0
1535011074;total;2825648896.00;21445924.00;2847094784.00;43041966;5671077438;1808087.24;324938.23;2133025.47;652151;3628831;0.00;0.00;0;0
1535011076;eth4;2653913344.00;20591012.00;2674504448.00;41223204;5313134691;1767928.12;311985.02;2079913.14;624594;3539392;0.00;0.00;0;0
1535011076;total;2653913344.00;20591012.00;2674504448.00;41223204;5313134691;1767928.12;311985.02;2079913.14;624594;3539392;0.00;0.00;0;0
1535011078;eth4;2666594048.00;19981830.00;2686575872.00;39963660;5333188312;1774672.50;302755.00;2077427.50;605510;3549345;0.00;0.00;0;0
1535011078;total;2666594048.00;19981830.00;2686575872.00;39963660;5333188312;1774672.50;302755.00;2077427.50;605510;3549345;0.00;0.00;0;0
1535011080;eth4;2672223232.00;19720938.00;2691944192.00;39441876;5344446582;1825296.50;298802.00;2124098.50;597604;3650593;0.00;0.00;0;0
1535011080;total;2672223232.00;19720938.00;2691944192.00;39441876;5344446582;1825296.50;298802.00;2124098.50;597604;3650593;0.00;0.00;0;0
1535011082;eth4;2649224448.00;19555312.00;2668779776.00;39110622;5298448930;1788553.00;296292.50;2084845.50;592585;3577106;0.00;0.00;0;0
1535011082;total;2649224448.00;19555312.00;2668779776.00;39110622;5298448930;1788553.00;296292.50;2084845.50;592585;3577106;0.00;0.00;0;0
1535011084;eth4;2639333120.00;19981156.00;2659314176.00;39962310;5278666060;1781024.00;302744.50;2083768.50;605489;3562048;0.00;0.00;0;0
1535011084;total;2639333120.00;19981156.00;2659314176.00;39962310;5278666060;1781024.00;302744.50;2083768.50;605489;3562048;0.00;0.00;0;0
1535011086;eth4;2680732672.00;18742132.00;2699474944.00;37484262;5361465472;1748388.50;283971.50;2032360.00;567943;3496777;0.00;0.00;0;0
1535011086;total;2680732672.00;18742132.00;2699474944.00;37484262;5361465472;1748388.50;283971.50;2032360.00;567943;3496777;0.00;0.00;0;0
1535011088;eth4;2621177600.00;20687116.00;2641864704.00;41374230;5242355204;1741022.50;313441.00;2054463.50;626882;3482045;0.00;0.00;0;0
1535011088;total;2621177600.00;20687116.00;2641864704.00;41374230;5242355204;1741022.50;313441.00;2054463.50;626882;3482045;0.00;0.00;0;0
1535011090;eth4;2625432320.00;20211786.00;2645644032.00;40423572;5250864640;1721781.00;306239.00;2028020.00;612478;3443562;0.00;0.00;0;0
1535011090;total;2625432320.00;20211786.00;2645644032.00;40423572;5250864640;1721781.00;306239.00;2028020.00;612478;3443562;0.00;0.00;0;0
1535011092;eth4;2649035008.00;20024922.00;2669060096.00;40049845;5298070156;1777710.00;303407.50;2081117.50;606815;3555420;0.00;0.00;0;0
1535011092;total;2649035008.00;20024922.00;2669060096.00;40049845;5298070156;1777710.00;303407.50;2081117.50;606815;3555420;0.00;0.00;0;0
1535011094;eth4;2640440576.00;19053502.00;2659493888.00;38811984;5378577280;1687001.45;288689.25;1975690.70;588060;3436422;0.00;0.00;0;0
1535011094;total;2640440576.00;19053502.00;2659493888.00;38811984;5378577280;1687001.45;288689.25;1975690.70;588060;3436422;0.00;0.00;0;0
1535011096;eth4;2583079424.00;18998766.00;2602078208.00;37997532;5166158984;1703321.00;287860.00;1991181.00;575720;3406642;0.00;0.00;0;0
1535011096;total;2583079424.00;18998766.00;2602078208.00;37997532;5166158984;1703321.00;287860.00;1991181.00;575720;3406642;0.00;0.00;0;0
1535011098;eth4;2661872896.00;19960156.00;2681832960.00;39920310;5323745688;1786239.00;302426.50;2088665.50;604853;3572478;0.00;0.00;0;0
1535011098;total;2661872896.00;19960156.00;2681832960.00;39920310;5323745688;1786239.00;302426.50;2088665.50;604853;3572478;0.00;0.00;0;0
1535011100;eth4;2595468544.00;20290900.00;2615759616.00;40581798;5190937282;1758889.50;307434.50;2066324.00;614869;3517779;0.00;0.00;0;0
1535011100;total;2595468544.00;20290900.00;2615759616.00;40581798;5190937282;1758889.50;307434.50;2066324.00;614869;3517779;0.00;0.00;0;0
1535011102;eth4;2654508032.00;19746578.00;2674254592.00;39532650;5314324834;1813657.89;299190.32;2112848.21;598979;3630943;0.00;0.00;0;0
1535011102;total;2654508032.00;19746578.00;2674254592.00;39532650;5314324834;1813657.89;299190.32;2112848.21;598979;3630943;0.00;0.00;0;0
1535011104;eth4;2644393984.00;19547252.00;2663941376.00;39094506;5288788196;1765255.50;296170.50;2061426.00;592341;3530511;0.00;0.00;0;0
1535011104;total;2644393984.00;19547252.00;2663941376.00;39094506;5288788196;1765255.50;296170.50;2061426.00;592341;3530511;0.00;0.00;0;0
