 5 78          936          254           18        62659    0    0 10108800     0 458244 163164   0  62   4  34   0
11 88          936          316           18        62596    0    0 9965696     0 451842 145025   0  74   2  23   0
98 34          936          274           18        62647    0    0 10711936     0 485178 170389   0  62   5  34   0
 9 91          936          397           18        62509    0    0 10365440     0 465623 160065   0  66   4  30   0
27 50          936          402           18        62540    0    0 10212352     0 463277 153554   0  72   3  25   0
62 49          936          385           18        62555    0    0 10268672     0 474638 167664   0  65   3  32   0
10 90          936          270           18        62674    0    0 10344448     0 483254 163721   0  67   3  31   0
25 77          936          236           18        62708    0    0 9920896     0 433299 148760   0  74   3  23   0
 3 53          936          303           18        62639    0    0 10979072     0 485678 175094   0  42  10  48   0
96 21          936          262           18        62659    0    0 10485376    84 457202 168880   0  52   6  42   0
97 30          936          216           18        62726    0    0 10377344     0 482295 161118   0  66   4  30   0
95 49          936          300           18        62645    0    0 10375936     0 484077 158811   0  68   3  28   0
97 26          936          222           18        62708    0    0 10477184     0 477263 163565   0  64   4  32   0
15 82          936          334           18        62610    0    0 10416544     0 478175 159868   0  70   2  28   0
 6 94          936          272           18        62671    0    0 10469888    28 473483 170482   0  59   4  37   0
78 35          936          489           18        62452    0    0 10488192     0 483181 167997   0  65   4  32   0
66 41          936          434           18        62511    0    0 9928960     0 450296 148091   0  75   2  23   0
25 79          936          344           18        62602    0    0 10003456     0 458974 153300   0  69   3  28   0
102 24          936          258           18        62668    0    0 10208768     0 470374 161296   0  65   4  31   0
