17 61          937          348           18        62599    0    0 10865024     0 448884 179459   0  36  15  49   0
19 77          937          314           18        62631    0    0 10271620     0 447004 164863   0  66   5  29   0
79 45          937          221           18        62722    0    0 9974272     4 460567 158494   0  72   3  25   0
43 70          937          319           18        62627    0    0 10161024     0 456597 160768   0  74   2  24   0
13 87          937          297           18        62646    0    0 10142848     0 450567 162081   0  71   2  26   0
91 30          937          283           18        62643    0    0 9882624     0 441828 151147   0  76   2  22   0
80 42          937          314           18        62606    0    0 10477568     0 458077 162876   0  70   3  27   0
 7 64          937          373           18        62576    0    0 10941824   112 483793 184543   0  43  14  43   0
47 59          937          382           18        62533    0    0 10839936     4 486803 180843   0  31  17  51   0
80 34          937          348           18        62599    0    0 10494336     0 461697 162536   0  63   6  31   0
83 43          937          363           18        62585    0    0 10545024     0 467471 161156   0  65   3  31   0
103 36          937          216           18        62729    0    0 9963264     0 453379 157713   0  72   2  25   0
58 34          937          372           18        62537    0    0 10176396     0 461898 156830   0  76   2  21   0
 7 60          937          359           18        62585    0    0 10714496     0 466115 173109   0  62   5  33   0
91 41          937          328           18        62593    0    0 10218880     0 444008 163767   0  64   6  30   0
 5 84          937          336           18        62610    0    0 10597248     0 466254 169316   0  60   4  35   0
98 27          937          225           18        62711    0    0 10560000     0 467755 162581   0  62   5  33   0
35 65          937          342           18        62610    0    0 10290816    56 474884 157741   0  68   3  29   0
101 49          937          237           18        62712    0    0 10247680     0 464155 151644   0  71   3  26   0
